{
  "code": 200,
  "next": "http://103.146.16.148/api/v1/customers?page=2&page_size=20",
  "previous": null,
  "count": 355,
  "results": [
    {
      "id": 11,
      "uid": "70e420d3-2622-43f5-999d-d4ca11ee4fdc",
      "name": "জুয়েল মিজি",
      "email": "",
      "phone": "01609444573",
      "address": "এনায়েতপুর মিজি বাড়ী কচুয়া চাঁদপুর",
      "nid": "1315887000122",
      "is_free": false,
      "package": {
        "id": 11,
        "uid": "10d3142d-6fad-48c2-bc89-621bebeba166",
        "name": "5Mbps",
        "speed_mbps": 5,
        "price": "500.00",
        "description": ""
      },
      "connection_start_date": null,
      "is_active": false,
      "ip_address": "",
      "mac_address": "",
      "username": "anit.joylmizi",
      "password": "12345",
      "connection_type": "DHCP",
      "credentials": {}
    },
    {
      "id": 10,
      "uid": "cb3908c2-8608-401a-b7a6-8b2b3d8f13a3",
      "name": "তোফায়েল হোসেন",
      "email": "",
      "phone": "01823596931",
      "address": "মনপুরা বলি মোঃ হাজী বাড়ী কচুয়া চাঁদপুর",
      "nid": "9151711554",
      "is_free": false,
      "package": {
        "id": 11,
        "uid": "10d3142d-6fad-48c2-bc89-621bebeba166",
        "name": "5Mbps",
        "speed_mbps": 5,
        "price": "500.00",
        "description": ""
      },
      "connection_start_date": null,
      "is_active": true,
      "ip_address": "",
      "mac_address": "",
      "username": "monpura.tofaelnotun",
      "password": "12345",
      "connection_type": "PPPoE",
      "credentials": {}
    },
    {
      "id": 9,
      "uid": "3a3374a0-6c65-45cc-b841-94fa665bc0d9",
      "name": "ইলিয়াছ মিয়া বড় বাড়ী",
      "email": "",
      "phone": "01838741026",
      "address": "এনায়েতপুর বড় বাড়ী কচুয়া চাঁদপুর",
      "nid": "1315887488616",
      "is_free": false,
      "package": {
        "id": 11,
        "uid": "10d3142d-6fad-48c2-bc89-621bebeba166",
        "name": "5Mbps",
        "speed_mbps": 5,
        "price": "500.00",
        "description": ""
      },
      "connection_start_date": null,
      "is_active": true,
      "ip_address": "",
      "mac_address": "",
      "username": "anit.eliusmia",
      "password": "12345",
      "connection_type": "PPPoE",
      "credentials": {}
    },
    {
      "id": 8,
      "uid": "9977ea75-df8e-45bd-b106-abfbd7545ae5",
      "name": "আবুল খায়ের প্রধানীয়া",
      "email": "",
      "phone": "01638897220",
      "address": "এনায়েতপুর প্রদানীয়া বাড়ী কচুয়া চাঁদপুর",
      "nid": "2824529396",
      "is_free": false,
      "package": {
        "id": 11,
        "uid": "10d3142d-6fad-48c2-bc89-621bebeba166",
        "name": "5Mbps",
        "speed_mbps": 5,
        "price": "500.00",
        "description": ""
      },
      "connection_start_date": null,
      "is_active": true,
      "ip_address": "",
      "mac_address": "",
      "username": "anit.abulkhaer",
      "password": "12345",
      "connection_type": "PPPoE",
      "credentials": {}
    },
    {
      "id": 7,
      "uid": "f0cb4510-09e2-4e37-9387-87ca24d7caf7",
      "name": "মোক্তা বুয়াই",
      "email": "",
      "phone": "01627462327",
      "address": "মনপুরা ভূইয়া বাড়ি কচুয়া চাঁদপুর",
      "nid": "",
      "is_free": false,
      "package": {
        "id": 11,
        "uid": "10d3142d-6fad-48c2-bc89-621bebeba166",
        "name": "5Mbps",
        "speed_mbps": 5,
        "price": "500.00",
        "description": ""
      },
      "connection_start_date": null,
      "is_active": true,
      "ip_address": "",
      "mac_address": "",
      "username": "monpura.muktiabuia",
      "password": "12345",
      "connection_type": "PPPoE",
      "credentials": {}
    },
    {
      "id": 6,
      "uid": "0ac1ffc3-f607-4f32-b5f4-f1c32057d7a4",
      "name": "পারভীন আক্তার ওকিল",
      "email": "",
      "phone": "01884001807",
      "address": "মনপুরা ওকিল বাড়ী কচুয়া চাঁদপুর",
      "nid": "4623335702",
      "is_free": false,
      "package": {
        "id": 11,
        "uid": "10d3142d-6fad-48c2-bc89-621bebeba166",
        "name": "5Mbps",
        "speed_mbps": 5,
        "price": "500.00",
        "description": ""
      },
      "connection_start_date": null,
      "is_active": true,
      "ip_address": "",
      "mac_address": "",
      "username": "monpura.parvinokil",
      "password": "12345",
      "connection_type": "PPPoE",
      "credentials": {}
    },
    {
      "id": 5,
      "uid": "74635bc5-f6a1-46fc-b8a1-ff27351426c2",
      "name": "মনির হোসেন আরী বাড়ী",
      "email": "",
      "phone": "01640635471",
      "address": "মনপুরা আরী বাড়ী কচুয়া চাঁদপুর",
      "nid": "1315855613593",
      "is_free": false,
      "package": {
        "id": 11,
        "uid": "10d3142d-6fad-48c2-bc89-621bebeba166",
        "name": "5Mbps",
        "speed_mbps": 5,
        "price": "500.00",
        "description": ""
      },
      "connection_start_date": null,
      "is_active": true,
      "ip_address": "",
      "mac_address": "",
      "username": "monpura.monirare",
      "password": "12345",
      "connection_type": "PPPoE",
      "credentials": {}
    },
    {
      "id": 4,
      "uid": "98adfcd8-668c-4a45-977e-48978d2e5cab",
      "name": "জেছমিন বেগম",
      "email": "",
      "phone": "01646512882",
      "address": "মনপুরা কাজী বাড়ী কচুয়া চাঁদপুর",
      "nid": "4623336478",
      "is_free": false,
      "package": {
        "id": 11,
        "uid": "10d3142d-6fad-48c2-bc89-621bebeba166",
        "name": "5Mbps",
        "speed_mbps": 5,
        "price": "500.00",
        "description": ""
      },
      "connection_start_date": null,
      "is_active": true,
      "ip_address": "",
      "mac_address": "",
      "username": "monpura.jasminkazi",
      "password": "12345",
      "connection_type": "PPPoE",
      "credentials": {}
    },
    {
      "id": 3,
      "uid": "7865fbff-2db8-4c10-b752-4518b9fd7c44",
      "name": "মোঃ আবুল কালাম",
      "email": "",
      "phone": "01830730268",
      "address": "মনপুরা বড় বাড়ী কচুয়া চাঁদপুর",
      "nid": "7751162988",
      "is_free": false,
      "package": {
        "id": 11,
        "uid": "10d3142d-6fad-48c2-bc89-621bebeba166",
        "name": "5Mbps",
        "speed_mbps": 5,
        "price": "500.00",
        "description": ""
      },
      "connection_start_date": null,
      "is_active": true,
      "ip_address": "",
      "mac_address": "",
      "username": "monpura.kalam1",
      "password": "12345",
      "connection_type": "PPPoE",
      "credentials": {}
    },
    {
      "id": 2661,
      "uid": "a84168b8-a5bc-41f0-924c-161c866e6fcf",
      "name": "মোঃ হাবিব মজা হাজী",
      "email": "",
      "phone": "01641549089",
      "address": "",
      "nid": "7814047507.0",
      "is_free": false,
      "package": {
        "id": 11,
        "uid": "10d3142d-6fad-48c2-bc89-621bebeba166",
        "name": "5Mbps",
        "speed_mbps": 5,
        "price": "500.00",
        "description": ""
      },
      "connection_start_date": null,
      "is_active": true,
      "ip_address": "",
      "mac_address": "",
      "username": "monpura.habibmoja",
      "password": "12345",
      "connection_type": "PPPoE",
      "credentials": {}
    },
    {
      "id": 2656,
      "uid": "6015fb87-e86f-485c-ab8b-1dfa4e2fc556",
      "name": "রিনা বেগম মোস্তফা মাষ্টার বাড়ী",
      "email": "",
      "phone": "01606249436",
      "address": "মনপুরা কচুয়া চাঁদপুর",
      "nid": "7773315135.0",
      "is_free": false,
      "package": {
        "id": 11,
        "uid": "10d3142d-6fad-48c2-bc89-621bebeba166",
        "name": "5Mbps",
        "speed_mbps": 5,
        "price": "500.00",
        "description": ""
      },
      "connection_start_date": null,
      "is_active": true,
      "ip_address": "",
      "mac_address": "",
      "username": "monpura.rinabegum",
      "password": "12345",
      "connection_type": "PPPoE",
      "credentials": {}
    },
    {
      "id": 2655,
      "uid": "5347dd7c-ca18-446b-a336-694bc2649983",
      "name": "ইয়াসিন বংশী",
      "email": "",
      "phone": "01624369201",
      "address": "মনপুরা বংশী বাড়ী \nকচুয়া চাঁদপুর",
      "nid": "7322691549.0",
      "is_free": false,
      "package": {
        "id": 11,
        "uid": "10d3142d-6fad-48c2-bc89-621bebeba166",
        "name": "5Mbps",
        "speed_mbps": 5,
        "price": "500.00",
        "description": ""
      },
      "connection_start_date": null,
      "is_active": true,
      "ip_address": "",
      "mac_address": "",
      "username": "monpura.yeasinb",
      "password": "12345",
      "connection_type": "PPPoE",
      "credentials": {}
    },
    {
      "id": 2654,
      "uid": "09c4de5f-6341-47ba-92f7-5f239ff30efe",
      "name": "মোঃ হোসাইন বৈরাগী",
      "email": "",
      "phone": "01974809947",
      "address": "মনপুরা বৈরাগী বাড়ী \nকচুয়া চাঁদপুর",
      "nid": "3314131917.0",
      "is_free": true,
      "package": {
        "id": 14,
        "uid": "07bbd5ec-a81a-4ac9-924a-8c9dbaacb629",
        "name": "10Mbps",
        "speed_mbps": 10,
        "price": "500.00",
        "description": ""
      },
      "connection_start_date": null,
      "is_active": true,
      "ip_address": "",
      "mac_address": "",
      "username": "monpura.hussainby",
      "password": "12345",
      "connection_type": "PPPoE",
      "credentials": {}
    },
    {
      "id": 2651,
      "uid": "3164a5a8-c464-4da8-8b02-5201375dcb40",
      "name": "সামছুল হক",
      "email": "",
      "phone": "01606255001",
      "address": "নয়াকান্দী মেম্বার বাড়ী \nকচুয়া চাঁদপুর",
      "nid": "5973337735.0",
      "is_free": false,
      "package": {
        "id": 11,
        "uid": "10d3142d-6fad-48c2-bc89-621bebeba166",
        "name": "5Mbps",
        "speed_mbps": 5,
        "price": "500.00",
        "description": ""
      },
      "connection_start_date": null,
      "is_active": true,
      "ip_address": "",
      "mac_address": "",
      "username": "naykanday.samsulhaq",
      "password": "12345",
      "connection_type": "PPPoE",
      "credentials": {}
    },
    {
      "id": 2650,
      "uid": "47ff426c-6b00-4172-9e88-3c8a97d7f5cb",
      "name": "আব্দুল কাদের বৈরাগী",
      "email": "",
      "phone": "01813248516",
      "address": "মনপুরা বৈরাগী\nকচুয়া চাঁদপুর",
      "nid": "3273070940.0",
      "is_free": true,
      "package": {
        "id": 14,
        "uid": "07bbd5ec-a81a-4ac9-924a-8c9dbaacb629",
        "name": "10Mbps",
        "speed_mbps": 10,
        "price": "500.00",
        "description": ""
      },
      "connection_start_date": null,
      "is_active": true,
      "ip_address": "",
      "mac_address": "",
      "username": "monpura.kaderby",
      "password": "12345",
      "connection_type": "PPPoE",
      "credentials": {}
    },
    {
      "id": 2649,
      "uid": "e7288183-276d-41e2-b155-cd24afdefd7f",
      "name": "নুরজাহান খাতুন বৈরাগী",
      "email": "",
      "phone": "01863280501",
      "address": "মনপুরা বৈরাগী বাড়ী\nকচুয়া চাঁদপুর",
      "nid": "2373070982.0",
      "is_free": true,
      "package": {
        "id": 14,
        "uid": "07bbd5ec-a81a-4ac9-924a-8c9dbaacb629",
        "name": "10Mbps",
        "speed_mbps": 10,
        "price": "500.00",
        "description": ""
      },
      "connection_start_date": null,
      "is_active": true,
      "ip_address": "",
      "mac_address": "",
      "username": "monpura.nurjahan",
      "password": "monpura.nurjahan",
      "connection_type": "PPPoE",
      "credentials": {}
    },
    {
      "id": 2646,
      "uid": "27e671c8-6fc9-4328-8058-b9d49e201d74",
      "name": "মোহছেনা বেগম মোস্তফা স্যার",
      "email": "",
      "phone": "01606251249",
      "address": "মনপুরা কচুয়া চাঁদপুর",
      "nid": "9561508988.0",
      "is_free": false,
      "package": {
        "id": 11,
        "uid": "10d3142d-6fad-48c2-bc89-621bebeba166",
        "name": "5Mbps",
        "speed_mbps": 5,
        "price": "500.00",
        "description": ""
      },
      "connection_start_date": null,
      "is_active": true,
      "ip_address": "",
      "mac_address": "",
      "username": "monpura.mohsena",
      "password": "12345",
      "connection_type": "PPPoE",
      "credentials": {}
    },
    {
      "id": 2645,
      "uid": "e12050e9-9152-4d3f-b794-99d35994db6e",
      "name": "মাহমুদুল নয়াকান্দী রাস্তায় শাহিদা বেগম",
      "email": "",
      "phone": "01852961240",
      "address": "নয়াকান্দী লাতুলল্লা বাড়ী কচুয়া চাঁদপুর",
      "nid": "1315839438920.0",
      "is_free": false,
      "package": {
        "id": 11,
        "uid": "10d3142d-6fad-48c2-bc89-621bebeba166",
        "name": "5Mbps",
        "speed_mbps": 5,
        "price": "500.00",
        "description": ""
      },
      "connection_start_date": null,
      "is_active": true,
      "ip_address": "",
      "mac_address": "",
      "username": "naykanday.mahmudul",
      "password": "12345",
      "connection_type": "PPPoE",
      "credentials": {}
    },
    {
      "id": 2644,
      "uid": "b994391a-d941-4d9a-b340-949b9c686836",
      "name": "মেহেদী হাসান বৈরাগী বাড়ী",
      "email": "",
      "phone": "01611694125",
      "address": "মনপুরা কচুয়া চাঁদপুর",
      "nid": "9151712123.0",
      "is_free": true,
      "package": {
        "id": 11,
        "uid": "10d3142d-6fad-48c2-bc89-621bebeba166",
        "name": "5Mbps",
        "speed_mbps": 5,
        "price": "500.00",
        "description": ""
      },
      "connection_start_date": null,
      "is_active": true,
      "ip_address": "",
      "mac_address": "",
      "username": "monpura.mehedihasan",
      "password": "12345",
      "connection_type": "PPPoE",
      "credentials": {}
    },
    {
      "id": 2643,
      "uid": "9b473655-9bd1-48f5-9837-3aa24f082baa",
      "name": "মোঃ এমদাদুল হক মিলন",
      "email": "",
      "phone": "01721115124",
      "address": "বাতাবাড়িয়া বাজার \nকচুয়া চাঁদপুর",
      "nid": "1315855000257.0",
      "is_free": true,
      "package": {
        "id": 14,
        "uid": "07bbd5ec-a81a-4ac9-924a-8c9dbaacb629",
        "name": "10Mbps",
        "speed_mbps": 10,
        "price": "500.00",
        "description": ""
      },
      "connection_start_date": null,
      "is_active": true,
      "ip_address": "",
      "mac_address": "",
      "username": "monpura.imdadul",
      "password": "12345",
      "connection_type": "PPPoE",
      "credentials": {}
    }
  ]
}
