{
  "code": 200,
  "next": "http://103.146.16.148/api/v1/payments?page=2&page_size=20",
  "previous": null,
  "count": 314,
  "results": [
    {
      "id": 991,
      "uid": "229ba2cd-fb20-4aeb-a45f-181f280088ce",
      "customer": {
        "id": 2656,
        "uid": "6015fb87-e86f-485c-ab8b-1dfa4e2fc556",
        "name": "রিনা বেগম মোস্তফা মাষ্টার বাড়ী",
        "email": "",
        "phone": "01606249436",
        "address": "মনপুরা কচুয়া চাঁদপুর",
        "nid": "7773315135.0",
        "is_free": false
      },
      "entry_by": {
        "id": 3,
        "uid": "ce649771-0b03-4577-ae9b-a13cac046281",
        "first_name": "Abul",
        "last_name": "Kashem",
        "phone": "01812528183",
        "email": "kashem@example.com"
      },
      "bill_amount": "500.00",
      "amount": "500.00",
      "billing_month": "SEPTEMBER",
      "payment_method": "CASH",
      "paid": true,
      "transaction_id": "73a781a2-060e-4b1e-b749-41d7937cee73",
      "payment_date": "2025-09-06T13:23:36.606088Z",
      "note": "Payment received by Abul Kashem",
      "created_at": "2025-09-06T13:23:36.607673Z",
      "updated_at": "2025-09-06T13:23:36.607681Z"
    },
    {
      "id": 990,
      "uid": "29ed84ce-0e80-49c1-b16f-958f243bdf29",
      "customer": {
        "id": 2314,
        "uid": "6590ba81-30db-4288-a076-c2405a813c41",
        "name": "জহির বেন্ডার",
        "email": "",
        "phone": "",
        "address": "মনপুরা\nকচুয়া চাঁদপুর",
        "nid": "",
        "is_free": false
      },
      "entry_by": {
        "id": 3,
        "uid": "ce649771-0b03-4577-ae9b-a13cac046281",
        "first_name": "Abul",
        "last_name": "Kashem",
        "phone": "01812528183",
        "email": "kashem@example.com"
      },
      "bill_amount": "500.00",
      "amount": "500.00",
      "billing_month": "AUGUST",
      "payment_method": "CASH",
      "paid": true,
      "transaction_id": "2deb4d10-bd10-4410-878c-4201c6cb5346",
      "payment_date": "2025-09-06T12:57:19.363753Z",
      "note": "Payment received by Abul Kashem",
      "created_at": "2025-09-06T12:57:19.371596Z",
      "updated_at": "2025-09-06T12:57:19.371632Z"
    },
    {
      "id": 989,
      "uid": "81c48ee3-c6da-4131-95da-8fd975ddda11",
      "customer": {
        "id": 2167,
        "uid": "456c983f-da6a-496b-9720-dcb9ccd45108",
        "name": "মোহাম্মদ উল্লাহ বড় বাড়ি",
        "email": "",
        "phone": "01612528183",
        "address": "মনপুরা বড় বাড়ি কচুয়া চাঁদপুর",
        "nid": "",
        "is_free": false
      },
      "entry_by": {
        "id": 3,
        "uid": "ce649771-0b03-4577-ae9b-a13cac046281",
        "first_name": "Abul",
        "last_name": "Kashem",
        "phone": "01812528183",
        "email": "kashem@example.com"
      },
      "bill_amount": "500.00",
      "amount": "500.00",
      "billing_month": "SEPTEMBER",
      "payment_method": "CASH",
      "paid": true,
      "transaction_id": "ba88908c-a1ec-4b48-a38d-d552687a9b95",
      "payment_date": "2025-09-06T12:56:30.321759Z",
      "note": "Payment received by Abul Kashem",
      "created_at": "2025-09-06T12:56:30.324314Z",
      "updated_at": "2025-09-06T12:56:30.324322Z"
    },
    {
      "id": 988,
      "uid": "83483006-6e81-4001-a4af-b0ec45567854",
      "customer": {
        "id": 2188,
        "uid": "604646cf-5ce8-4c7a-b8e6-a3122ea8d5fa",
        "name": "Sahaalom1",
        "email": "",
        "phone": "monpura.mahde",
        "address": "MONPURA BUIA BARE",
        "nid": "",
        "is_free": false
      },
      "entry_by": {
        "id": 3,
        "uid": "ce649771-0b03-4577-ae9b-a13cac046281",
        "first_name": "Abul",
        "last_name": "Kashem",
        "phone": "01812528183",
        "email": "kashem@example.com"
      },
      "bill_amount": "500.00",
      "amount": "500.00",
      "billing_month": "SEPTEMBER",
      "payment_method": "CASH",
      "paid": true,
      "transaction_id": "767119f4-7fee-4dcd-a10e-db7fc75875e0",
      "payment_date": "2025-09-06T12:54:47.703517Z",
      "note": "Payment received by Abul Kashem",
      "created_at": "2025-09-06T12:54:47.706660Z",
      "updated_at": "2025-09-06T12:54:47.706669Z"
    },
    {
      "id": 987,
      "uid": "0e0615fa-5cf0-4372-ae27-ccd83e02b9ad",
      "customer": {
        "id": 2576,
        "uid": "cb662a68-950c-4af5-a16f-7f7c2aff9509",
        "name": "মোঃ রফিকুল ইসলাম রনি",
        "email": "",
        "phone": "01751039900",
        "address": "এনায়েতপুর বেপাড়ী বাড়ী কচুয়া চাঁদপুর",
        "nid": "1315887491702.0",
        "is_free": false
      },
      "entry_by": {
        "id": 3,
        "uid": "ce649771-0b03-4577-ae9b-a13cac046281",
        "first_name": "Abul",
        "last_name": "Kashem",
        "phone": "01812528183",
        "email": "kashem@example.com"
      },
      "bill_amount": "500.00",
      "amount": "500.00",
      "billing_month": "SEPTEMBER",
      "payment_method": "CASH",
      "paid": true,
      "transaction_id": "e0261d73-e5f8-40a2-890c-3ed9a43010cc",
      "payment_date": "2025-09-06T12:54:22.017382Z",
      "note": "Payment received by Abul Kashem",
      "created_at": "2025-09-06T12:54:22.020894Z",
      "updated_at": "2025-09-06T12:54:22.020907Z"
    },
    {
      "id": 986,
      "uid": "b2f26732-799f-4bf3-973b-ae483539265e",
      "customer": {
        "id": 2572,
        "uid": "28324963-19db-4487-be89-850f1d7e0655",
        "name": "মাসুদ বড় বাড়ী",
        "email": "",
        "phone": "01888261395",
        "address": "এনায়েতপুর বড় বাড়ী কচুয়া চাঁদপুর",
        "nid": "",
        "is_free": false
      },
      "entry_by": {
        "id": 3,
        "uid": "ce649771-0b03-4577-ae9b-a13cac046281",
        "first_name": "Abul",
        "last_name": "Kashem",
        "phone": "01812528183",
        "email": "kashem@example.com"
      },
      "bill_amount": "500.00",
      "amount": "1000.00",
      "billing_month": "SEPTEMBER",
      "payment_method": "CASH",
      "paid": true,
      "transaction_id": "781c6fc8-9343-411a-8ee6-51592d5059de",
      "payment_date": "2025-09-06T12:54:03.088500Z",
      "note": "Payment received by Abul Kashem",
      "created_at": "2025-09-06T12:54:03.091293Z",
      "updated_at": "2025-09-06T12:54:03.091302Z"
    },
    {
      "id": 985,
      "uid": "208cc038-a460-4832-b1bd-f5e42da94146",
      "customer": {
        "id": 2474,
        "uid": "481e1a5d-2405-4897-be67-368bb3f2e1e7",
        "name": "নাজমা আক্তার মজুমদার",
        "email": "",
        "phone": "01851392563",
        "address": "এনায়েতপুর মজুমদার বাড়ী কচুয়া চাঁদপুর",
        "nid": "1314950000122.0",
        "is_free": false
      },
      "entry_by": {
        "id": 3,
        "uid": "ce649771-0b03-4577-ae9b-a13cac046281",
        "first_name": "Abul",
        "last_name": "Kashem",
        "phone": "01812528183",
        "email": "kashem@example.com"
      },
      "bill_amount": "500.00",
      "amount": "500.00",
      "billing_month": "SEPTEMBER",
      "payment_method": "CASH",
      "paid": true,
      "transaction_id": "0e5a2cd5-0742-4d8d-aeb4-d7c0478c2b73",
      "payment_date": "2025-09-06T12:53:28.214591Z",
      "note": "Payment received by Abul Kashem",
      "created_at": "2025-09-06T12:53:28.217701Z",
      "updated_at": "2025-09-06T12:53:28.217711Z"
    },
    {
      "id": 984,
      "uid": "836f0268-ef62-4f1c-b347-04a92697a6ef",
      "customer": {
        "id": 2420,
        "uid": "3c536b9b-8e4b-4f8e-95a2-3e7b59ff1431",
        "name": "আবুল কাশেম বড় বাড়ী",
        "email": "",
        "phone": "",
        "address": "এনায়েতপুর বড় বাড়ী \nকচুয়া চাঁদপুর",
        "nid": "",
        "is_free": false
      },
      "entry_by": {
        "id": 3,
        "uid": "ce649771-0b03-4577-ae9b-a13cac046281",
        "first_name": "Abul",
        "last_name": "Kashem",
        "phone": "01812528183",
        "email": "kashem@example.com"
      },
      "bill_amount": "500.00",
      "amount": "500.00",
      "billing_month": "SEPTEMBER",
      "payment_method": "CASH",
      "paid": true,
      "transaction_id": "a7da1de5-433b-48b4-84c9-c345a0a23f56",
      "payment_date": "2025-09-06T12:53:00.341519Z",
      "note": "Payment received by Abul Kashem",
      "created_at": "2025-09-06T12:53:00.344230Z",
      "updated_at": "2025-09-06T12:53:00.344239Z"
    },
    {
      "id": 983,
      "uid": "9564e9c7-3e55-4cf9-8b8b-b359244f4043",
      "customer": {
        "id": 2254,
        "uid": "017cb955-02c9-46b0-a723-8dd37bb3f415",
        "name": "সাইফুল বিল্লাল হোসেন",
        "email": "",
        "phone": "01757210867",
        "address": "এনায়েতপুর কচুয়া চাঁদপুর",
        "nid": "1315887423955.0",
        "is_free": false
      },
      "entry_by": {
        "id": 3,
        "uid": "ce649771-0b03-4577-ae9b-a13cac046281",
        "first_name": "Abul",
        "last_name": "Kashem",
        "phone": "01812528183",
        "email": "kashem@example.com"
      },
      "bill_amount": "500.00",
      "amount": "500.00",
      "billing_month": "SEPTEMBER",
      "payment_method": "CASH",
      "paid": true,
      "transaction_id": "715b24ef-cb25-4a4e-8c28-8fda153f058e",
      "payment_date": "2025-09-06T12:52:44.445811Z",
      "note": "Payment received by Abul Kashem",
      "created_at": "2025-09-06T12:52:44.448444Z",
      "updated_at": "2025-09-06T12:52:44.448454Z"
    },
    {
      "id": 982,
      "uid": "ed559763-baaf-4e34-ac40-0f2327e88b70",
      "customer": {
        "id": 2260,
        "uid": "b34b31ce-ecf6-4680-9d68-5c67d6245b6e",
        "name": "হিরা মনি আক্তার",
        "email": "",
        "phone": "01614309227",
        "address": "দোজানা জুমা গাজী প্রধানীয়া বাড়ি কচুয়া চাঁদপুর",
        "nid": "1514030053.0",
        "is_free": false
      },
      "entry_by": {
        "id": 3,
        "uid": "ce649771-0b03-4577-ae9b-a13cac046281",
        "first_name": "Abul",
        "last_name": "Kashem",
        "phone": "01812528183",
        "email": "kashem@example.com"
      },
      "bill_amount": "500.00",
      "amount": "500.00",
      "billing_month": "SEPTEMBER",
      "payment_method": "CASH",
      "paid": true,
      "transaction_id": "d58ff673-b2ed-4e4c-b1b0-35b2fa2059c1",
      "payment_date": "2025-09-06T12:52:22.549215Z",
      "note": "Payment received by Abul Kashem",
      "created_at": "2025-09-06T12:52:22.551804Z",
      "updated_at": "2025-09-06T12:52:22.551814Z"
    },
    {
      "id": 981,
      "uid": "71189e98-1a12-490e-b50d-c52cb0c72024",
      "customer": {
        "id": 2239,
        "uid": "5d03cdda-9dbe-4bcc-a9c6-f635c59f566d",
        "name": "Oiasim",
        "email": "",
        "phone": "",
        "address": "MONPURA BUIA BARE",
        "nid": "",
        "is_free": false
      },
      "entry_by": {
        "id": 3,
        "uid": "ce649771-0b03-4577-ae9b-a13cac046281",
        "first_name": "Abul",
        "last_name": "Kashem",
        "phone": "01812528183",
        "email": "kashem@example.com"
      },
      "bill_amount": "500.00",
      "amount": "1000.00",
      "billing_month": "SEPTEMBER",
      "payment_method": "CASH",
      "paid": true,
      "transaction_id": "d2da1495-adf7-4b80-bc58-8a7204fd639d",
      "payment_date": "2025-09-06T12:52:03.668110Z",
      "note": "Payment received by Abul Kashem",
      "created_at": "2025-09-06T12:52:03.670978Z",
      "updated_at": "2025-09-06T12:52:03.670987Z"
    },
    {
      "id": 980,
      "uid": "bddb54d4-0287-4494-b781-ab0f152f8fa2",
      "customer": {
        "id": 2170,
        "uid": "316e2141-28fb-4584-a09d-68e08932fb67",
        "name": "shamim anit",
        "email": "",
        "phone": "8888888888",
        "address": "MONPURA BUIA BARE",
        "nid": "",
        "is_free": false
      },
      "entry_by": {
        "id": 3,
        "uid": "ce649771-0b03-4577-ae9b-a13cac046281",
        "first_name": "Abul",
        "last_name": "Kashem",
        "phone": "01812528183",
        "email": "kashem@example.com"
      },
      "bill_amount": "500.00",
      "amount": "500.00",
      "billing_month": "SEPTEMBER",
      "payment_method": "CASH",
      "paid": true,
      "transaction_id": "c0bb34f2-8e33-448a-b4db-ede6b55233fe",
      "payment_date": "2025-09-06T12:51:43.617098Z",
      "note": "Payment received by Abul Kashem",
      "created_at": "2025-09-06T12:51:43.620199Z",
      "updated_at": "2025-09-06T12:51:43.620209Z"
    },
    {
      "id": 977,
      "uid": "4ce3c448-a499-416e-afdd-711906e5ff93",
      "customer": {
        "id": 2142,
        "uid": "fe0e20db-6823-42cf-babd-77a72e22f625",
        "name": "কাজল বেগম _সোহেল মজুমদার",
        "email": "",
        "phone": "01831458908",
        "address": "মেঘদাই কচুয়া চাঁদপুর",
        "nid": "1474201785.0",
        "is_free": false
      },
      "entry_by": {
        "id": 1,
        "uid": "f36861c8-bcc3-4117-9206-a697bcb6532e",
        "first_name": "Kamrul",
        "last_name": "Hasan",
        "phone": "01778849808",
        "email": ""
      },
      "bill_amount": "500.00",
      "amount": "0.00",
      "billing_month": "SEPTEMBER",
      "payment_method": "OTHER",
      "paid": false,
      "transaction_id": "",
      "payment_date": "2025-09-04T00:00:00Z",
      "note": "Auto-generated bill for SEPTEMBER",
      "created_at": "2025-09-02T15:12:50.069487Z",
      "updated_at": "2025-09-04T16:15:34.777208Z"
    },
    {
      "id": 976,
      "uid": "68cfe116-c5de-4173-a54e-ed7ec5bb977d",
      "customer": {
        "id": 2144,
        "uid": "71575496-2bb5-4d6f-9ab0-0976fc278a5d",
        "name": "Yousif",
        "email": "",
        "phone": "",
        "address": "MONPURA BUIA BARE",
        "nid": "",
        "is_free": false
      },
      "entry_by": null,
      "bill_amount": "500.00",
      "amount": "0.00",
      "billing_month": "SEPTEMBER",
      "payment_method": "OTHER",
      "paid": false,
      "transaction_id": "",
      "payment_date": null,
      "note": "Auto-generated bill for SEPTEMBER",
      "created_at": "2025-09-02T15:12:50.069468Z",
      "updated_at": "2025-09-02T15:12:50.069470Z"
    },
    {
      "id": 974,
      "uid": "6c3d5f08-823c-4fff-8ad8-3fc6b08f5ce6",
      "customer": {
        "id": 2146,
        "uid": "f7c2705d-092a-4c95-9a9e-8a1e65fa93db",
        "name": "Masud",
        "email": "",
        "phone": "",
        "address": "MONPURA BUIA BARE",
        "nid": "",
        "is_free": false
      },
      "entry_by": null,
      "bill_amount": "500.00",
      "amount": "0.00",
      "billing_month": "SEPTEMBER",
      "payment_method": "OTHER",
      "paid": false,
      "transaction_id": "",
      "payment_date": null,
      "note": "Auto-generated bill for SEPTEMBER",
      "created_at": "2025-09-02T15:12:50.069426Z",
      "updated_at": "2025-09-02T15:12:50.069428Z"
    },
    {
      "id": 973,
      "uid": "d71ea4b0-03bd-4d78-af4d-4a889983619d",
      "customer": {
        "id": 2147,
        "uid": "5a10eaf6-9175-44eb-bf52-aa5758aa9437",
        "name": "01615387275",
        "email": "",
        "phone": "46475477",
        "address": "ANITPUR MASTER BARE",
        "nid": "",
        "is_free": true
      },
      "entry_by": null,
      "bill_amount": "500.00",
      "amount": "0.00",
      "billing_month": "SEPTEMBER",
      "payment_method": "OTHER",
      "paid": false,
      "transaction_id": "",
      "payment_date": null,
      "note": "Auto-generated bill for SEPTEMBER",
      "created_at": "2025-09-02T15:12:50.069407Z",
      "updated_at": "2025-09-02T15:12:50.069410Z"
    },
    {
      "id": 972,
      "uid": "b3f20236-6833-48de-9b91-1db0f425ac40",
      "customer": {
        "id": 2148,
        "uid": "eb16a267-e2a5-47a3-9918-6d7084cfefba",
        "name": "মোঃ তোফাজ্জল হোসেন হিমেল",
        "email": "",
        "phone": "645747",
        "address": "মনপুরা রেজার বাড়ী\nকচুয়া চাঁদপুর",
        "nid": "",
        "is_free": true
      },
      "entry_by": null,
      "bill_amount": "500.00",
      "amount": "0.00",
      "billing_month": "SEPTEMBER",
      "payment_method": "OTHER",
      "paid": false,
      "transaction_id": "",
      "payment_date": null,
      "note": "Auto-generated bill for SEPTEMBER",
      "created_at": "2025-09-02T15:12:50.069389Z",
      "updated_at": "2025-09-02T15:12:50.069391Z"
    },
    {
      "id": 971,
      "uid": "909cc981-1493-4137-adc9-f8d4e05b9702",
      "customer": {
        "id": 2149,
        "uid": "119ea660-6fdf-4e5c-82d6-7f328c4531ab",
        "name": "Nana",
        "email": "",
        "phone": "",
        "address": "MONPURA BUIA BARE",
        "nid": "",
        "is_free": false
      },
      "entry_by": null,
      "bill_amount": "500.00",
      "amount": "0.00",
      "billing_month": "SEPTEMBER",
      "payment_method": "OTHER",
      "paid": false,
      "transaction_id": "",
      "payment_date": null,
      "note": "Auto-generated bill for SEPTEMBER",
      "created_at": "2025-09-02T15:12:50.069370Z",
      "updated_at": "2025-09-02T15:12:50.069372Z"
    },
    {
      "id": 970,
      "uid": "1d17960e-327e-4860-b4f7-c6c25b8fd352",
      "customer": {
        "id": 2150,
        "uid": "cf82c75b-c389-4a03-83ee-9aef107187b6",
        "name": "Sohelnotun",
        "email": "",
        "phone": "",
        "address": "MONPURA BUIA BARE",
        "nid": "",
        "is_free": false
      },
      "entry_by": null,
      "bill_amount": "500.00",
      "amount": "0.00",
      "billing_month": "SEPTEMBER",
      "payment_method": "OTHER",
      "paid": false,
      "transaction_id": "",
      "payment_date": null,
      "note": "Auto-generated bill for SEPTEMBER",
      "created_at": "2025-09-02T15:12:50.069351Z",
      "updated_at": "2025-09-02T15:12:50.069354Z"
    },
    {
      "id": 969,
      "uid": "13f3aaac-f628-4ea1-8857-2528ba7d08f1",
      "customer": {
        "id": 2151,
        "uid": "4f6b3b0f-ca03-4e6f-84e7-958b374a0efc",
        "name": "Masudkhondokar",
        "email": "",
        "phone": "",
        "address": "MONPURA BUIA BARE",
        "nid": "",
        "is_free": false
      },
      "entry_by": null,
      "bill_amount": "500.00",
      "amount": "0.00",
      "billing_month": "SEPTEMBER",
      "payment_method": "OTHER",
      "paid": false,
      "transaction_id": "",
      "payment_date": null,
      "note": "Auto-generated bill for SEPTEMBER",
      "created_at": "2025-09-02T15:12:50.069332Z",
      "updated_at": "2025-09-02T15:12:50.069335Z"
    }
  ]
}
